…
Obtaining Data

Reading and viewing the dataset

GET("https://query.data.world/s/n5nc32oqhtb25hdt3vsa24rd4scs2w", write_disk(tf <- tempfile(fileext = ".xlsx")))

olympics = read_excel(tf)

olympics

## # A tibble: 2,865 x 9
##     Year Sport Event Country Gender `Medal Rank` Medal `Name of Athlet…
##    <dbl> <chr> <chr> <chr>   <chr>         <dbl> <chr> <chr>           
##  1  1924 Bobs… Men'… Switze… Men               1 gold  Switzerland-1   
##  2  1924 Bobs… Men'… Britain Men               2 silv… Britain-1       
##  3  1924 Bobs… Men'… Belgium Men               3 bron… Belgium-1       
##  4  1924 Cros… Men'… Norway  Men               1 gold  Thorleif Haug   
##  5  1924 Cros… Men'… Norway  Men               2 silv… Johan GrÃ¸ttums…
##  6  1924 Cros… Men'… Finland Men               3 bron… Tapani Niku     
##  7  1924 Cros… Men'… Norway  Men               1 gold  Thorleif Haug   
##  8  1924 Cros… Men'… Norway  Men               2 silv… Thoralf StrÃ¸ms…
##  9  1924 Cros… Men'… Norway  Men               3 bron… Johan GrÃ¸ttums…
## 10  1924 Curl… Men'… Britain Men               1 gold  Britain         
## # ... with 2,855 more rows, and 1 more variable: `Age of Athlete` <dbl>
…
Scrubbing data

As per the dataset requirement, East and West Germany are to be grouped with Germany and Soviet Union and the 1992 Unified Team needs to be combined with Russia

olympics = olympics %>% 
  mutate(Country = recode(Country, "Soviet Union" = "Russia", "Unified Team" = "Russia",
                          "East Germany" = "Germany", "West Germany" = "Germany"))

Reading in the ISO-3166 country codes dataset in order to generate the choropleth

countryCodes = read_csv("https://raw.githubusercontent.com/lukes/ISO-3166-Countries-with-Regional-Codes/master/all/all.csv")

countryCodes

## # A tibble: 249 x 11
##    name  `alpha-2` `alpha-3` `country-code` `iso_3166-2` region
##    <chr> <chr>     <chr>     <chr>          <chr>        <chr> 
##  1 Afgh… AF        AFG       004            ISO 3166-2:… Asia  
##  2 Ålan… AX        ALA       248            ISO 3166-2:… Europe
##  3 Alba… AL        ALB       008            ISO 3166-2:… Europe
##  4 Alge… DZ        DZA       012            ISO 3166-2:… Africa
##  5 Amer… AS        ASM       016            ISO 3166-2:… Ocean…
##  6 Ando… AD        AND       020            ISO 3166-2:… Europe
##  7 Ango… AO        AGO       024            ISO 3166-2:… Africa
##  8 Angu… AI        AIA       660            ISO 3166-2:… Ameri…
##  9 Anta… AQ        ATA       010            ISO 3166-2:… <NA>  
## 10 Anti… AG        ATG       028            ISO 3166-2:… Ameri…
## # ... with 239 more rows, and 5 more variables: `sub-region` <chr>,
## #   `intermediate-region` <chr>, `region-code` <chr>,
## #   `sub-region-code` <chr>, `intermediate-region-code` <chr>
…
Joining and viewing the 2 datasets

olympics = olympics %>% 
  left_join(countryCodes, by=c("Country" = "name"))
olympics

## # A tibble: 2,865 x 19
##     Year Sport Event Country Gender `Medal Rank` Medal `Name of Athlet…
##    <dbl> <chr> <chr> <chr>   <chr>         <dbl> <chr> <chr>           
##  1  1924 Bobs… Men'… Switze… Men               1 gold  Switzerland-1   
##  2  1924 Bobs… Men'… United… Men               2 silv… Britain-1       
##  3  1924 Bobs… Men'… Belgium Men               3 bron… Belgium-1       
##  4  1924 Cros… Men'… Norway  Men               1 gold  Thorleif Haug   
##  5  1924 Cros… Men'… Norway  Men               2 silv… Johan GrÃ¸ttums…
##  6  1924 Cros… Men'… Finland Men               3 bron… Tapani Niku     
##  7  1924 Cros… Men'… Norway  Men               1 gold  Thorleif Haug   
##  8  1924 Cros… Men'… Norway  Men               2 silv… Thoralf StrÃ¸ms…
##  9  1924 Cros… Men'… Norway  Men               3 bron… Johan GrÃ¸ttums…
## 10  1924 Curl… Men'… United… Men               1 gold  Britain         
## # ... with 2,855 more rows, and 11 more variables: `Age of Athlete` <dbl>,
## #   `alpha-2` <chr>, `alpha-3` <chr>, `country-code` <chr>,
## #   `iso_3166-2` <chr>, region <chr>, `sub-region` <chr>,
## #   `intermediate-region` <chr>, `region-code` <chr>,
## #   `sub-region-code` <chr>, `intermediate-region-code` <chr>

Aggregating per country to find the total number of medals for each country and its corresponding alpha-3 code.

TotalMedalsPerCountry = olympics %>% 
  group_by(Country, `alpha-3`) %>% 
  summarise(TotalMedals = n()) %>% 
  rename(Code = `alpha-3`)
TotalMedalsPerCountry

## # A tibble: 39 x 3
## # Groups:   Country [39]
##    Country        Code  TotalMedals
##    <chr>          <chr>       <int>
##  1 Australia      AUS            12
##  2 Austria        AUT           218
##  3 Belarus        BLR            15
##  4 Belgium        BEL             5
##  5 Bulgaria       BGR             6
##  6 Canada         CAN           170
##  7 China          CHN            53
##  8 Croatia        HRV            11
##  9 Czech Republic <NA>           49
## 10 Denmark        DNK             1
## # ... with 29 more rows

Lets see the top countries based on total number of medals

TotalMedalsPerCountry %>% 
  arrange(desc(TotalMedals))

## # A tibble: 39 x 3
## # Groups:   Country [39]
##    Country                  Code  TotalMedals
##    <chr>                    <chr>       <int>
##  1 Germany                  DEU           377
##  2 Russian Federation       RUS           341
##  3 Norway                   NOR           329
##  4 United States of America USA           282
##  5 Austria                  AUT           218
##  6 Canada                   CAN           170
##  7 Finland                  FIN           161
##  8 Sweden                   SWE           144
##  9 Switzerland              CHE           138
## 10 Italy                    ITA           114
## # ... with 29 more rows
…
