…
Load Libraries

rm(list = ls())
library(tidyverse)
library(lubridate)
library(ggplot2)
library(gridExtra)
library(janitor)

theme_set(theme_light())

df <- read_csv("~/Downloads/House buying options - Sheet1.csv")
df

## # A tibble: 33 x 20
##    `Cost factors` `Aparna Serene … `Prestige Ivy l… `Criteria for I…
##    <chr>          <chr>            <chr>            <chr>           
##  1 Rate per sft.  6,700.00         7,500.00         6,000.00        
##  2 All in rate    8,025.00         8,575.95         7,000.00        
##  3 Total cost     12,95,00,000.00  1,49,05,000.00   1,20,00,000.00  
##  4 Floor          18               4                8               
##  5 Disctance To … 8.7 KM           4.2 KM           5               
##  6 Number of par… two              one              <NA>            
##  7 Future mainte… 5,646.30         8,203.36         5,000.00        
##  8 Occupancy      End of the year  Ready            Ready           
##  9 Construction … <NA>             <NA>             <NA>            
## 10 - Flooring     High             Supreme          High            
## # … with 23 more rows, and 16 more variables: `Aparna score` <dbl>,
## #   `Prestige score` <chr>, `Weight/Importance` <chr>, `Final score
## #   Aparna` <chr>, `Final score Prestige` <chr>, X10 <dbl>, X11 <lgl>,
## #   X12 <lgl>, X13 <lgl>, X14 <lgl>, X15 <lgl>, X16 <lgl>, `Lansum
## #   Etania` <chr>, `Rajpushpa atria` <chr>, `Golf edge` <chr>, `My home
## #   avtar` <chr>
…
