…
Analyzing Brexit data

brexit <- readr::read_csv("https://raw.githubusercontent.com/rfordatascience/tidytuesday/master/data/2019/2019-04-16/brexit.csv")

brexit

## # A tibble: 85 x 3
##    date     percent_responding_right percent_responding_wrong
##    <chr>                       <dbl>                    <dbl>
##  1 02/08/16                       46                       42
##  2 09/08/16                       45                       44
##  3 17/08/16                       46                       43
##  4 23/08/16                       45                       43
##  5 31/08/16                       47                       44
##  6 14/09/16                       46                       43
##  7 12/10/16                       45                       44
##  8 20/10/16                       45                       44
##  9 15/11/16                       46                       43
## 10 29/11/16                       44                       45
## # … with 75 more rows
…
Analyzing US trade deficit

trade <- readr::read_csv("https://raw.githubusercontent.com/rfordatascience/tidytuesday/master/data/2019/2019-04-16/trade.csv")

trade

## # A tibble: 22 x 3
##     year trade_deficit manufacture_employment
##    <dbl>         <dbl>                  <dbl>
##  1  1995      -3.38e10              17244583.
##  2  1996      -3.95e10              17236750 
##  3  1997      -4.97e10              17417833.
##  4  1998      -5.69e10              17560000 
##  5  1999      -6.87e10              17322667.
##  6  2000      -8.38e10              17265250 
##  7  2001      -8.31e10              16440583.
##  8  2002      -1.03e11              15256833.
##  9  2003      -1.24e11              14508500 
## 10  2004      -1.62e11              14314750 
## # … with 12 more rows
…
Analyzing pension benefits

pensions <- readr::read_csv("https://raw.githubusercontent.com/rfordatascience/tidytuesday/master/data/2019/2019-04-16/pensions.csv")

pensions

## # A tibble: 35 x 3
##    country        pop_65_percent gov_spend_percent_gdp
##    <chr>                   <dbl>                 <dbl>
##  1 Australia               15.0                   5.2 
##  2 Austria                 18.8                  13.9 
##  3 Belgium                 18.2                  10.4 
##  4 Brazil                   7.84                 12   
##  5 Canada                  16.1                   4.31
##  6 Chile                   11                     3.25
##  7 Czech Republic          18.1                   9.09
##  8 Denmark                 19.0                   8.45
##  9 Estonia                 18.8                   6.99
## 10 Finland                 20.5                  11.4 
## # … with 25 more rows
…
Analyzing EU balance

eu_balance <- readr::read_csv("https://raw.githubusercontent.com/rfordatascience/tidytuesday/master/data/2019/2019-04-16/eu_balance.csv")

eu_balance

## # A tibble: 266 x 4
##    country account_type  year    value
##    <chr>   <chr>        <dbl>    <dbl>
##  1 Belgium current       2009   -3755 
##  2 Germany current       2009  141234 
##  3 Estonia current       2009     360 
##  4 Ireland current       2009   -7912.
##  5 Greece  current       2009  -29323 
##  6 Spain   current       2009  -46191 
##  7 France  current       2009  -10652 
##  8 Italy   current       2009  -29717 
##  9 Cyprus  current       2009   -1431 
## 10 Latvia  current       2009    1463 
## # … with 256 more rows
…
Analyzing papers published

women_research <- readr::read_csv("https://raw.githubusercontent.com/rfordatascience/tidytuesday/master/data/2019/2019-04-16/women_research.csv")

women_research

## # A tibble: 60 x 3
##    country        field           percent_women
##    <chr>          <chr>                   <dbl>
##  1 Japan          Health sciences          0.24
##  2 Chile          Health sciences          0.43
##  3 United Kingdom Health sciences          0.45
##  4 United States  Health sciences          0.46
##  5 Mexico         Health sciences          0.46
##  6 Denmark        Health sciences          0.47
##  7 EU28           Health sciences          0.48
##  8 France         Health sciences          0.48
##  9 Canada         Health sciences          0.49
## 10 Australia      Health sciences          0.5 
## # … with 50 more rows
…
