…
Using scaled (i.e. z-score) of log10 of weight field as the rating.

ratings %>% 
  mutate(rating = scale(log10(weight))) -> ratings

ratings %>% 
  count(userID, sort = TRUE)

## # A tibble: 1,892 x 2
##    userID     n
##    <fct>  <int>
##  1 2         50
##  2 3         50
##  3 4         50
##  4 5         50
##  5 6         50
##  6 7         50
##  7 8         50
##  8 9         50
##  9 10        50
## 10 11        50
## # … with 1,882 more rows

Looks like a highly cleaned dataset, where every user has exactly 50 ratings (or user’s play counts of exactly 50 artists).

ratings %>% 
  count(artistID, sort = TRUE)

## # A tibble: 17,632 x 2
##    artistID     n
##    <fct>    <int>
##  1 89         611
##  2 289        522
##  3 288        484
##  4 227        480
##  5 300        473
##  6 67         429
##  7 333        417
##  8 292        407
##  9 190        400
## 10 498        399
## # … with 17,622 more rows
…
friends %>% 
  select_if(function(x) any(is.na(x))) %>% 
  summarise_all(funs(sum(is.na(.))))

## # A tibble: 1 x 0

friends %>% 
  mutate(userID = as.factor(userID),
         friendID = as.factor(friendID)) -> friends

friends %>% 
  count(userID, sort = TRUE)

## # A tibble: 1,892 x 2
##    userID     n
##    <fct>  <int>
##  1 1543     119
##  2 1281     110
##  3 831      106
##  4 179       97
##  5 1503      95
##  6 1023      91
##  7 405       90
##  8 1895      90
##  9 1300      89
## 10 390       88
## # … with 1,882 more rows
…
metadata %>% 
  select_if(function(x) any(is.na(x))) %>% 
  summarise_all(funs(sum(is.na(.))))

## # A tibble: 1 x 3
##    name   url pictureURL
##   <int> <int>      <int>
## 1 22951 22951      23024

I’ll skip worrying about NA urls and pictureURLs for now. Lets explore the rows where name is NA.

metadata %>% 
  filter(is.na(name))

## # A tibble: 22,951 x 10
##    userID artistID tagID   day month  year tagValue       name  url   pictureURL
##     <dbl>    <dbl> <dbl> <dbl> <dbl> <dbl> <chr>          <chr> <chr> <chr>     
##  1      4     1713    18     1    11  2007 electronic     <NA>  <NA>  <NA>      
##  2      4     1745    18     1    10  2007 electronic     <NA>  <NA>  <NA>      
##  3      4     1810    72     1    12  2007 hard rock      <NA>  <NA>  <NA>      
##  4      4     1824    15     1     6  2007 downtempo      <NA>  <NA>  <NA>      
##  5      4     1870    92     1     3  2007 dope           <NA>  <NA>  <NA>      
##  6      4     1873    78     1     3  2007 alternative r… <NA>  <NA>  <NA>      
##  7      4     1917     7     1     8  2007 gothic metal   <NA>  <NA>  <NA>      
##  8      4     2370    76     1     9  2007 progressive m… <NA>  <NA>  <NA>      
##  9      5     2786    96     1     4  2008 spring         <NA>  <NA>  <NA>      
## 10      8    14103    24     1    11  2006 pop            <NA>  <NA>  <NA>      
## # … with 22,941 more rows

ratings %>% 
  filter(artistID == 1713)

## # A tibble: 58 x 4
##    userID artistID weight rating[,1]
##    <fct>  <fct>     <dbl>      <dbl>
##  1 59     1713        610     0.617 
##  2 62     1713        214    -0.0671
##  3 99     1713        561     0.563 
##  4 103    1713         23    -1.52  
##  5 124    1713       1080     0.991 
##  6 183    1713        161    -0.253 
##  7 191    1713        107    -0.520 
##  8 210    1713       7898     2.29  
##  9 211    1713        709     0.716 
## 10 216    1713        174    -0.202 
## # … with 48 more rows
…
