…
## The following object is masked from 'package:base':
## 
##     date

news <- read_csv("~/Downloads/india-news-headlines.csv",
                 col_types = cols(publish_date = col_character()))
news %>% 
  mutate(publish_date = ymd(publish_date)) -> news

news %>% 
  count(headline_category, sort = TRUE)

## # A tibble: 1,952 x 2
##    headline_category                       n
##    <chr>                               <int>
##  1 india                              270958
##  2 unknown                            206493
##  3 city.mumbai                        122990
##  4 city.delhi                         112651
##  5 business.india-business            107523
##  6 city.chandigarh                     99688
##  7 city.hyderabad                      86201
##  8 city.bengaluru                      84463
##  9 entertainment.hindi.bollywood.news  80086
## 10 city.lucknow                        77865
## # … with 1,942 more rows

news %>% 
  filter(headline_category == "city.indore")

## # A tibble: 14,429 x 3
##    publish_date headline_category headline_text                            
##    <date>       <chr>             <chr>                                    
##  1 2011-08-18   city.indore       Anna's protest stirs youth interest in t…
##  2 2011-08-18   city.indore       IMC gets tough with absentees            
##  3 2011-08-18   city.indore       No action yet aginst doctors in drug tri…
##  4 2011-08-18   city.indore       Forest dept plants new system to monitor…
##  5 2011-08-18   city.indore       RSS chief seeks battle against graft     
##  6 2011-08-18   city.indore       Anuradha Shankar is new Indore IG        
##  7 2011-08-18   city.indore       HC stays Congress leaders' arrest        
##  8 2011-08-18   city.indore       Health officers pulled up for shoddy work
##  9 2011-08-18   city.indore       BJP activists in Indore rally behind Ann…
## 10 2011-08-18   city.indore       Support for Anna's stir against corrupti…
## # … with 14,419 more rows
