…
Following along the screencast from David Robinson

library(tidyverse)
library(lubridate)
library(scales)
theme_set(theme_light())

bike_traffic_raw <- readr::read_csv("https://raw.githubusercontent.com/rfordatascience/tidytuesday/master/data/2019/2019-04-02/bike_traffic.csv", col_types = cols(bike_count = col_double(), ped_count = col_logical()))

bike_traffic <- bike_traffic_raw %>% 
  mutate(date = mdy_hms(date))

bike_traffic

## # A tibble: 515,688 x 5
##    date                crossing             direction bike_count ped_count
##    <dttm>              <chr>                <chr>          <dbl> <lgl>    
##  1 2014-01-01 00:00:00 Broadway Cycle Trac… North              0 NA       
##  2 2014-01-01 01:00:00 Broadway Cycle Trac… North              3 NA       
##  3 2014-01-01 02:00:00 Broadway Cycle Trac… North              0 NA       
##  4 2014-01-01 03:00:00 Broadway Cycle Trac… North              0 NA       
##  5 2014-01-01 04:00:00 Broadway Cycle Trac… North              0 NA       
##  6 2014-01-01 05:00:00 Broadway Cycle Trac… North              0 NA       
##  7 2014-01-01 06:00:00 Broadway Cycle Trac… North              0 NA       
##  8 2014-01-01 07:00:00 Broadway Cycle Trac… North              0 NA       
##  9 2014-01-01 08:00:00 Broadway Cycle Trac… North              2 NA       
## 10 2014-01-01 09:00:00 Broadway Cycle Trac… North              0 NA       
## # ... with 515,678 more rows
…
