…
saveRDS(knn_grid, "../data/nlp_with_disaster_tweets/knn/knn_grid.rds")

knn_grid <- readRDS("../data/nlp_with_disaster_tweets/knn/knn_grid.rds")

knn_grid %>% 
  collect_metrics()

## # A tibble: 300 x 6
##    neighbors .metric  .estimator  mean     n std_err
##        <dbl> <chr>    <chr>      <dbl> <int>   <dbl>
##  1         1 accuracy binary     0.653     5 0.00572
##  2         1 f_meas   binary     0.728     5 0.00523
##  3         1 roc_auc  binary     0.627     5 0.00543
##  4         2 accuracy binary     0.652     5 0.00673
##  5         2 f_meas   binary     0.726     5 0.00610
##  6         2 roc_auc  binary     0.665     5 0.00861
##  7         3 accuracy binary     0.652     5 0.00681
##  8         3 f_meas   binary     0.726     5 0.00635
##  9         3 roc_auc  binary     0.680     5 0.00953
## 10         4 accuracy binary     0.653     5 0.00642
## # … with 290 more rows
…
