…
lasso_fit <- wf %>% 
  add_model(lasso_spec) %>% 
  fit(data = tweets_train)

saveRDS(lasso_fit, "../data/nlp_with_disaster_tweets/glmnet/lasso_basic_fit.rds")

lasso_fit <- readRDS("../data/nlp_with_disaster_tweets/glmnet/lasso_basic_fit.rds")

lasso_fit %>% 
  pull_workflow_fit() %>% 
  tidy() 

## # A tibble: 11,684 x 5
##    term         step estimate lambda dev.ratio
##    <chr>       <dbl>    <dbl>  <dbl>     <dbl>
##  1 (Intercept)     1  -0.283  0.151   1.80e-14
##  2 (Intercept)     2  -0.284  0.138   1.17e- 2
##  3 PC001           2  -0.0101 0.138   1.17e- 2
##  4 (Intercept)     3  -0.284  0.126   2.14e- 2
##  5 PC001           3  -0.0194 0.126   2.14e- 2
##  6 (Intercept)     4  -0.285  0.114   2.97e- 2
##  7 PC001           4  -0.0280 0.114   2.97e- 2
##  8 (Intercept)     5  -0.286  0.104   3.66e- 2
##  9 PC001           5  -0.0360 0.104   3.66e- 2
## 10 (Intercept)     6  -0.288  0.0951  5.21e- 2
## # … with 11,674 more rows
…
saveRDS(lasso_grid, "../data/nlp_with_disaster_tweets/glmnet/lasso_grid.rds")

lasso_grid <- readRDS("../data/nlp_with_disaster_tweets/glmnet/lasso_grid.rds")

lasso_grid %>% 
  collect_metrics()

## # A tibble: 225 x 6
##     penalty .metric  .estimator  mean     n std_err
##       <dbl> <chr>    <chr>      <dbl> <int>   <dbl>
##  1 1.00e-10 accuracy binary     0.772    30 0.00343
##  2 1.00e-10 f_meas   binary     0.807    30 0.00277
##  3 1.00e-10 roc_auc  binary     0.836    30 0.00370
##  4 1.37e-10 accuracy binary     0.772    30 0.00343
##  5 1.37e-10 f_meas   binary     0.807    30 0.00277
##  6 1.37e-10 roc_auc  binary     0.836    30 0.00370
##  7 1.86e-10 accuracy binary     0.772    30 0.00343
##  8 1.86e-10 f_meas   binary     0.807    30 0.00277
##  9 1.86e-10 roc_auc  binary     0.836    30 0.00370
## 10 2.54e-10 accuracy binary     0.772    30 0.00343
## # … with 215 more rows
…
