…
## # A tibble: 1 x 4
##   variable type    role    source  
##   <chr>    <chr>   <chr>   <chr>   
## 1 target   nominal outcome original

PCA

tweets_recipe %>% 
  step_pca(all_predictors(), num_comp = 2) %>% 
  prep(training = tweets_train) %>% 
  juice() -> tweets_train_pca

tweets_train_pca

## # A tibble: 5,330 x 3
##    target    PC1   PC2
##    <fct>   <dbl> <dbl>
##  1 1       0.582  6.03
##  2 1       3.37  -4.35
##  3 1       0.878  5.44
##  4 1       0.662  1.96
##  5 1      -0.583  2.13
##  6 1       3.57   1.89
##  7 1       1.48   3.73
##  8 1       3.28   4.42
##  9 1       7.52  -5.08
## 10 1       1.96   3.62
## # … with 5,320 more rows
…
params <- parameters(list(penalty = penalty(), mixture = mixture()))

train_grid_search <- train_and_tune(model_spec, params)

saveRDS(train_grid_search, "../data/nlp_with_disaster_tweets/glmnet/train_grid_search.rds")

train_grid_search <- readRDS("../data/nlp_with_disaster_tweets/glmnet/train_grid_search.rds")

train_grid_search %>% 
  collect_metrics() %>% 
  arrange(-mean)

## # A tibble: 60 x 7
##     penalty mixture .metric .estimator  mean     n std_err
##       <dbl>   <dbl> <chr>   <chr>      <dbl> <int>   <dbl>
##  1 9.48e- 2  0.0104 roc_auc binary     0.839    30 0.00248
##  2 1.11e- 2  0.501  roc_auc binary     0.835    30 0.00259
##  3 4.19e- 3  0.676  roc_auc binary     0.833    30 0.00257
##  4 1.65e- 3  0.896  roc_auc binary     0.828    30 0.00257
##  5 1.65e- 1  0.0762 roc_auc binary     0.827    30 0.00262
##  6 6.50e- 4  0.172  roc_auc binary     0.819    30 0.00242
##  7 2.45e- 9  0.108  roc_auc binary     0.818    30 0.00240
##  8 1.41e-10  0.284  roc_auc binary     0.817    30 0.00240
##  9 3.79e- 8  0.202  roc_auc binary     0.817    30 0.00241
## 10 1.70e- 5  0.822  roc_auc binary     0.817    30 0.00240
## # … with 50 more rows
…
params <- parameters(list(penalty = penalty(), mixture = mixture()))

train_grid_search <- train_and_tune(model_spec, params)

saveRDS(train_grid_search, "../data/nlp_with_disaster_tweets/glmnet/train_grid_search.rds")

train_grid_search <- readRDS("../data/nlp_with_disaster_tweets/glmnet/train_grid_search.rds")

train_grid_search %>% 
  collect_metrics() %>% 
  arrange(-mean)

## # A tibble: 60 x 7
##     penalty mixture .metric .estimator  mean     n std_err
##       <dbl>   <dbl> <chr>   <chr>      <dbl> <int>   <dbl>
##  1 9.48e- 2  0.0104 roc_auc binary     0.839    30 0.00248
##  2 1.11e- 2  0.501  roc_auc binary     0.835    30 0.00259
##  3 4.19e- 3  0.676  roc_auc binary     0.833    30 0.00257
##  4 1.65e- 3  0.896  roc_auc binary     0.828    30 0.00257
##  5 1.65e- 1  0.0762 roc_auc binary     0.827    30 0.00262
##  6 6.50e- 4  0.172  roc_auc binary     0.819    30 0.00242
##  7 2.45e- 9  0.108  roc_auc binary     0.818    30 0.00240
##  8 1.41e-10  0.284  roc_auc binary     0.817    30 0.00240
##  9 3.79e- 8  0.202  roc_auc binary     0.817    30 0.00241
## 10 1.70e- 5  0.822  roc_auc binary     0.817    30 0.00240
## # … with 50 more rows
…
