…
## Obtaining Data
Reading and viewing the dataset
```r
GET("https://query.data.world/s/utmlfljjzc2naoeielefxsf4fh5qkf", write_disk(tf <- tempfile(fileext = ".xlsx")))
```
```r
drugs <- read_excel(tf)
```
```r
drugs
```
```
## # A tibble: 1,100 x 3
##    Exporter                  Year `Exports (USD)`
##    <chr>                    <dbl>           <dbl>
##  1 World                     2013    326445385000
##  2 Germany                   2013     48493611000
##  3 Switzerland               2013     32337891000
##  4 Belgium                   2013     33329615000
##  5 France                    2013     27848920000
##  6 United States of America  2013     23098676000
##  7 United Kingdom            2013     20885936000
##  8 Ireland                   2013     18152573000
##  9 Italy                     2013     20898532000
## 10 Netherlands               2013     13480651000
## # … with 1,090 more rows
```
…
## Scrubbing data
Removing rows with NA for the purposes of this visualization
```r
drugs = drugs %>%
  filter(!is.na(`Exports (USD)`))
```
Let’s see overall which are the Countries with highest export over these 5 years.
```r
drugs %>%
  group_by(Exporter) %>%
  summarise(TotalExport = sum(`Exports (USD)`)) %>%
  arrange(desc(TotalExport))
```
```
## # A tibble: 220 x 2
##    Exporter                   TotalExport
##    <chr>                            <dbl>
##  1 World                    1309425248000
##  2 Germany                   197463838000
##  3 Switzerland               183296295000
##  4 France                    123482590000
##  5 Belgium                   117396245000
##  6 United States of America  114868001000
##  7 United Kingdom            110713945000
##  8 Ireland                    96686923000
##  9 Italy                      76012918000
## 10 Netherlands                59659401000
## # … with 210 more rows
```
…
  othersExports = (df %>% filter(Exporter=="World") %>% select(`Exports (USD)`)) - (top10ForYear %>% summarise(Total = sum(`Exports (USD)`)))

  YEAR = df %>% select(Year) %>% unique() %>% .$Year
  top10ForYear = top10ForYear %>%
    add_row(Exporter = "Others", Year = YEAR, `Exports (USD)` = othersExports %>% .$`Exports (USD)`)
  return(top10ForYear)
}
yearlyTop10s = drugs %>%
  filter(Year != 2017) %>%
  group_by(Year) %>%
  do(getTop10ForYear(.))
yearlyTop10s
```
```
## # A tibble: 44 x 3
##    Exporter                  Year `Exports (USD)`
##    <chr>                    <dbl>           <dbl>
##  1 Germany                   2013     48493611000
##  2 Switzerland               2013     32337891000
##  3 Belgium                   2013     33329615000
##  4 France                    2013     27848920000
##  5 United States of America  2013     23098676000
##  6 United Kingdom            2013     20885936000
##  7 Ireland                   2013     18152573000
##  8 Italy                     2013     20898532000
##  9 Netherlands               2013     13480651000
## 10 India                     2013     10313989000
## # … with 34 more rows
```
…
