…
``` sourcecode
olympics = read_excel(tf)
```

</div>

<div id="cb5" class="sourceCode">

``` sourcecode
olympics
```

</div>

    ## # A tibble: 2,865 x 9
    ##     Year Sport Event Country Gender `Medal Rank` Medal `Name of Athlet…
    ##    &lt;dbl&gt; &lt;chr&gt; &lt;chr&gt; &lt;chr&gt;   &lt;chr&gt;         &lt;dbl&gt; &lt;chr&gt; &lt;chr&gt;           
    ##  1  1924 Bobs… Men&#39;… Switze… Men               1 gold  Switzerland-1   
    ##  2  1924 Bobs… Men&#39;… Britain Men               2 silv… Britain-1       
    ##  3  1924 Bobs… Men&#39;… Belgium Men               3 bron… Belgium-1       
    ##  4  1924 Cros… Men&#39;… Norway  Men               1 gold  Thorleif Haug   
    ##  5  1924 Cros… Men&#39;… Norway  Men               2 silv… Johan GrÃ¸ttums…
    ##  6  1924 Cros… Men&#39;… Finland Men               3 bron… Tapani Niku     
    ##  7  1924 Cros… Men&#39;… Norway  Men               1 gold  Thorleif Haug   
    ##  8  1924 Cros… Men&#39;… Norway  Men               2 silv… Thoralf StrÃ¸ms…
    ##  9  1924 Cros… Men&#39;… Norway  Men               3 bron… Johan GrÃ¸ttums…
    ## 10  1924 Curl… Men&#39;… Britain Men               1 gold  Britain         
    ## # … with 2,855 more rows, and 1 more variable: `Age of Athlete` &lt;dbl&gt;
…
``` sourcecode
countryCodes = read_csv(&quot;https://raw.githubusercontent.com/lukes/ISO-3166-Countries-with-Regional-Codes/master/all/all.csv&quot;)
```

</div>

<div id="cb13" class="sourceCode">

``` sourcecode
countryCodes
```

</div>

    ## # A tibble: 249 x 11
    ##    name  `alpha-2` `alpha-3` `country-code` `iso_3166-2` region `sub-region`
    ##    &lt;chr&gt; &lt;chr&gt;     &lt;chr&gt;     &lt;chr&gt;          &lt;chr&gt;        &lt;chr&gt;  &lt;chr&gt;       
    ##  1 Afgh… AF        AFG       004            ISO 3166-2:… Asia   Southern As…
    ##  2 Ålan… AX        ALA       248            ISO 3166-2:… Europe Northern Eu…
    ##  3 Alba… AL        ALB       008            ISO 3166-2:… Europe Southern Eu…
    ##  4 Alge… DZ        DZA       012            ISO 3166-2:… Africa Northern Af…
    ##  5 Amer… AS        ASM       016            ISO 3166-2:… Ocean… Polynesia   
    ##  6 Ando… AD        AND       020            ISO 3166-2:… Europe Southern Eu…
    ##  7 Ango… AO        AGO       024            ISO 3166-2:… Africa Sub-Saharan…
    ##  8 Angu… AI        AIA       660            ISO 3166-2:… Ameri… Latin Ameri…
    ##  9 Anta… AQ        ATA       010            ISO 3166-2:… &lt;NA&gt;   &lt;NA&gt;        
    ## 10 Anti… AG        ATG       028            ISO 3166-2:… Ameri… Latin Ameri…
    ## # … with 239 more rows, and 4 more variables: `intermediate-region` &lt;chr&gt;,
    ## #   `region-code` &lt;chr&gt;, `sub-region-code` &lt;chr&gt;,
    ## #   `intermediate-region-code` &lt;chr&gt;
…
</div>

Joining and viewing the 2 datasets

<div id="cb30" class="sourceCode">

``` sourcecode
olympics = olympics %&gt;% 
  left_join(countryCodes, by=c(&quot;Country&quot; = &quot;name&quot;))
olympics
```

</div>

    ## # A tibble: 2,865 x 19
    ##     Year Sport Event Country Gender `Medal Rank` Medal `Name of Athlet…
    ##    &lt;dbl&gt; &lt;chr&gt; &lt;chr&gt; &lt;chr&gt;   &lt;chr&gt;         &lt;dbl&gt; &lt;chr&gt; &lt;chr&gt;           
    ##  1  1924 Bobs… Men&#39;… Switze… Men               1 gold  Switzerland-1   
    ##  2  1924 Bobs… Men&#39;… United… Men               2 silv… Britain-1       
    ##  3  1924 Bobs… Men&#39;… Belgium Men               3 bron… Belgium-1       
    ##  4  1924 Cros… Men&#39;… Norway  Men               1 gold  Thorleif Haug   
    ##  5  1924 Cros… Men&#39;… Norway  Men               2 silv… Johan GrÃ¸ttums…
    ##  6  1924 Cros… Men&#39;… Finland Men               3 bron… Tapani Niku     
    ##  7  1924 Cros… Men&#39;… Norway  Men               1 gold  Thorleif Haug   
    ##  8  1924 Cros… Men&#39;… Norway  Men               2 silv… Thoralf StrÃ¸ms…
    ##  9  1924 Cros… Men&#39;… Norway  Men               3 bron… Johan GrÃ¸ttums…
    ## 10  1924 Curl… Men&#39;… United… Men               1 gold  Britain         
    ## # … with 2,855 more rows, and 11 more variables: `Age of Athlete` &lt;dbl&gt;,
    ## #   `alpha-2` &lt;chr&gt;, `alpha-3` &lt;chr&gt;, `country-code` &lt;chr&gt;, `iso_3166-2` &lt;chr&gt;,
    ## #   region &lt;chr&gt;, `sub-region` &lt;chr&gt;, `intermediate-region` &lt;chr&gt;,
    ## #   `region-code` &lt;chr&gt;, `sub-region-code` &lt;chr&gt;,
    ## #   `intermediate-region-code` &lt;chr&gt;
…
<div id="cb32" class="sourceCode">

``` sourcecode
TotalMedalsPerCountry = olympics %&gt;% 
  group_by(Country, `alpha-3`) %&gt;% 
  summarise(TotalMedals = n()) %&gt;% 
  rename(Code = `alpha-3`)
TotalMedalsPerCountry
```

</div>

    ## # A tibble: 39 x 3
    ##    Country        Code  TotalMedals
    ##    &lt;chr&gt;          &lt;chr&gt;       &lt;int&gt;
    ##  1 Australia      AUS            12
    ##  2 Austria        AUT           218
    ##  3 Belarus        BLR            15
    ##  4 Belgium        BEL             5
    ##  5 Bulgaria       BGR             6
    ##  6 Canada         CAN           170
    ##  7 China          CHN            53
    ##  8 Croatia        HRV            11
    ##  9 Czech Republic &lt;NA&gt;           49
    ## 10 Denmark        DNK             1
    ## # … with 29 more rows

Lets see the top countries based on total number of medals

<div id="cb34" class="sourceCode">

``` sourcecode
TotalMedalsPerCountry %&gt;% 
  arrange(desc(TotalMedals))
```

</div>

    ## # A tibble: 39 x 3
    ##    Country                  Code  TotalMedals
    ##    &lt;chr&gt;                    &lt;chr&gt;       &lt;int&gt;
    ##  1 Germany                  DEU           377
    ##  2 Russian Federation       RUS           341
    ##  3 Norway                   NOR           329
    ##  4 United States of America USA           282
    ##  5 Austria                  AUT           218
    ##  6 Canada                   CAN           170
    ##  7 Finland                  FIN           161
    ##  8 Sweden                   SWE           144
    ##  9 Switzerland              CHE           138
    ## 10 Italy                    ITA           114
    ## # … with 29 more rows
…
