…
bird_counts
```
```
## # A tibble: 18,706 x 6
##     year species    species_latin  how_many_counted total_hours how_many_counte…
##    <dbl> <chr>      <chr>                     <dbl>       <dbl>            <dbl>
##  1  1921 American … Botaurus lent…                0           8            0
##  2  1921 American … Anas rubripes                 0           8            0
##  3  1921 American … Fulica americ…                0           8            0
##  4  1921 American … Corvus brachy…                0           8            0
##  5  1921 American … Spinus tristis                0           8            0
##  6  1921 American … Falco sparver…                0           8            0
##  7  1921 American … Anthus rubesc…                0           8            0
##  8  1921 American … Turdus migrat…                1           8            0.125
##  9  1921 American … Picoides dors…                0           8            0
## 10  1921 American … Spizelloides …               12           8            1.5
## # … with 18,696 more rows
```
…
