…
bike_traffic <- bike_traffic_raw %>%
  mutate(date = mdy_hms(date)) %>%
  filter(bike_count < 2000) %>%
  select(-ped_count)

bike_traffic
```
```
## # A tibble: 509,082 x 4
##    date                crossing                             direction bike_count
##    <dttm>              <chr>                                <chr>          <dbl>
##  1 2014-01-01 00:00:00 Broadway Cycle Track North Of E Uni… North              0
##  2 2014-01-01 01:00:00 Broadway Cycle Track North Of E Uni… North              3
##  3 2014-01-01 02:00:00 Broadway Cycle Track North Of E Uni… North              0
##  4 2014-01-01 03:00:00 Broadway Cycle Track North Of E Uni… North              0
##  5 2014-01-01 04:00:00 Broadway Cycle Track North Of E Uni… North              0
##  6 2014-01-01 05:00:00 Broadway Cycle Track North Of E Uni… North              0
##  7 2014-01-01 06:00:00 Broadway Cycle Track North Of E Uni… North              0
##  8 2014-01-01 07:00:00 Broadway Cycle Track North Of E Uni… North              0
##  9 2014-01-01 08:00:00 Broadway Cycle Track North Of E Uni… North              2
## 10 2014-01-01 09:00:00 Broadway Cycle Track North Of E Uni… North              0
## # … with 509,072 more rows
```
…
