…
saveRDS(knn_grid, "../data/nlp_with_disaster_tweets/knn/knn_grid.rds")
```
```r
knn_grid <- readRDS("../data/nlp_with_disaster_tweets/knn/knn_grid.rds")

knn_grid %>%
  collect_metrics()
```
```
## # A tibble: 300 x 6
##    neighbors .metric  .estimator  mean     n std_err
##        <dbl> <chr>    <chr>      <dbl> <int>   <dbl>
##  1         1 accuracy binary     0.628     5 0.00597
##  2         1 f_meas   binary     0.705     5 0.00426
##  3         1 roc_auc  binary     0.604     5 0.00653
##  4         2 accuracy binary     0.628     5 0.00598
##  5         2 f_meas   binary     0.705     5 0.00426
##  6         2 roc_auc  binary     0.630     5 0.00928
##  7         3 accuracy binary     0.628     5 0.00544
##  8         3 f_meas   binary     0.706     5 0.00349
##  9         3 roc_auc  binary     0.639     5 0.00873
## 10         4 accuracy binary     0.628     5 0.00537
## # … with 290 more rows
```
…
