…
saveRDS(gbtree_grid, "../data/nlp_with_disaster_tweets/trees/gbtree_grid.rds")
```
```r
gbtree_grid <- readRDS("../data/nlp_with_disaster_tweets/trees/gbtree_grid.rds")

gbtree_grid %>%
  collect_metrics()
```
```
## # A tibble: 45 x 6
##    tree_depth .metric  .estimator  mean     n std_err
##         <int> <chr>    <chr>      <dbl> <int>   <dbl>
##  1          1 accuracy binary     0.724     5 0.00999
##  2          1 f_meas   binary     0.778     5 0.00826
##  3          1 roc_auc  binary     0.775     5 0.00754
##  4          2 accuracy binary     0.740     5 0.0106
##  5          2 f_meas   binary     0.788     5 0.00859
##  6          2 roc_auc  binary     0.801     5 0.00668
##  7          3 accuracy binary     0.756     5 0.00862
##  8          3 f_meas   binary     0.800     5 0.00719
##  9          3 roc_auc  binary     0.813     5 0.00587
## 10          4 accuracy binary     0.761     5 0.00675
## # … with 35 more rows
```
…
